﻿id,Title,Ubicaciones,Parent,"Parent Slug",titulo,titulo_en_negrita,tipo_de_pagina,nivel_de_pagina
1449,"Ofertas de pasajes de micro a bariloche",Bariloche,0,1449,"Encontrá pasajes de micro a","San Carlos de Bariloche",1,
1482,"Pasajes de Bariloche a Mendoza",,1449,1482,,,1,1
1483,"Pasajes de Bariloche a Buenos Aires",,1449,1483,,,1,1
1484,"Pasajes de Bariloche a El Bolsón",,1449,1484,,,1,1
1485,"Pasajes de Bariloche a Córdoba",,1449,1485,,,1,1
1486,"Pasajes de Bariloche a Bahía Blanca",,1449,1486,,,1,1
1487,"Pasajes de Mendoza a Bariloche",,1449,1487,,,0,1
1488,"Pasajes de Buenos Aires a Bariloche",,1449,1488,,,0,1
1489,"Pasajes de El Bolsón a Bariloche",,1449,1489,,,0,1
1490,"Pasajes de Córdoba a Bariloche",,1449,1490,,,0,1
1491,"Pasajes de Bahía Blanca a Bariloche",,1449,1491,,,0,1
1494,"Pasajes de Bariloche a General Roca",,1449,1494,,,1,0
1495,"Pasajes de Bariloche a Neuquén",,1449,1495,,,1,0
1497,"Pasajes de Bariloche a Cipoletti",,1449,1497,,,1,0
1498,"Pasajes de Bariloche a Villa Mascardi",,1449,1498,,,1,0
1499,"Pasajes de Bariloche a Lago Gutierrez",,1449,1499,,,1,0
1515,"Pasajes de General Roca a Bariloche",,1449,1515,,,0,0
1516,"Pasajes de Neuquén a Bariloche",,1449,1516,,,0,0
1517,"Pasajes de Cipoletti a Bariloche",,1449,1517,,,0,0
1518,"Pasajes de Villa Mascardi a Bariloche",,1449,1518,,,0,0
1519,"Pasajes de Lago Gutierrez a Bariloche",,1449,1519,,,0,0
1538,"Ofertas de pasajes de micro a córdoba",Córdoba,0,1538,"Encontrá pasajes de micro a",Córdoba,,
1540,"Pasajes de Córdoba a Buenos Aires",,1538,1540,,,1,1
1541,"Pasajes de Córdoba a Mendoza",,1538,1541,,,1,1
1542,"Pasajes de Córdoba a Bariloche",,1538,1542,,,1,1
1543,"Pasajes de Córdoba a Mar del Plata",,1538,1543,,,1,1
1544,"Pasajes de Córdoba a Merlo, San Luis",,1538,1544,,,1,1
1545,"Pasajes de Buenos Aires a Córdoba",,1538,1545,,,0,1
1547,"Pasajes de Mendoza a Córdoba",,1538,1547,,,0,1
1548,"Pasajes de Bariloche a Córdoba",,1538,1548,,,0,1
1549,"Pasajes de Mar del Plata a Córdoba",,1538,1549,,,0,1
1550,"Pasajes de Merlo, San Luis a Córdoba",,1538,1550,,,0,1
1551,"Pasajes de Mina Clavero a Córdoba",,1538,1551,,,0,0
1552,"Pasajes de Cosquín a Córdoba",,1538,1552,,,,
1553,"Pasajes de Villa Carlos Paz a Córdoba",,1538,1553,,,,
1554,"Pasajes de Jesús María a Córdoba",,1538,1554,,,,
1555,"Pasajes de VIlla General Belgrano a Córdoba",,1538,1555,,,,
1556,"Pasajes de Córdoba a Mina Clavero",,1538,1556,,,1,0
1557,"Pasajes de Córdoba a Cosquín",,1538,1557,,,1,0
1558,"Pasajes de Córdoba a Villa Carlos Paz",,1538,1558,,,1,0
1559,"Pasajes de Córdoba a Jesús María",,1538,1559,,,1,0
1560,"Pasajes de Córdoba a VIlla General Belgrano",,1538,1560,,,1,0
1561,"Ofertas de pasajes de micro a San luis","San luis",0,1561,"Encontrá pasajes de micro a","San luis",,
1562,"Pasajes de San Luis a Mendoza",,1561,1562,,,1,1
1563,"Pasajes de Mendoza a San Luis",,1561,1563,,,0,1
1564,"Pasajes de San Luis a Maipú",,1561,1564,,,1,0
1565,"Pasajes de Maipú a San Luis",,1561,1565,,,0,0
1566,"Pasajes de San Luis a Buenos Aires",,1561,1566,,,1,1
1567,"Pasajes de San Luis a Córdoba",,1561,1567,,,1,1
1568,"Pasajes de San Luis a San Juan",,1561,1568,,,1,1
1569,"Pasajes de San Luis a Merlo, San Luis",,1561,1569,,,1,1
1570,"Pasajes de Buenos Aires a San Luis",,1561,1570,,,0,1
1571,"Pasajes de Córdoba a San Luis",,1561,1571,,,0,1
1572,"Pasajes de San Juan a San Luis",,1561,1572,,,0,1
1573,"Pasajes de Merlo, San Luis a San Luis",,1561,1573,,,0,1
1574,"Pasajes de San Luis a San Martín, Mendoza",,1561,1574,,,1,0
1575,"Pasajes de San Luis a San Rafael",,1561,1575,,,1,0
1576,"Pasajes de San Luis a Villa Mercedes",,1561,1576,,,1,0
1577,"Pasajes de San Luis a Las Heras",,1561,1577,,,1,0
1578,"Pasajes de San Martín, Mendoza a San Luis",,1561,1578,,,0,0
1579,"Pasajes de San Rafael a San Luis",,1561,1579,,,0,0
1580,"Pasajes de Villa Mercedes a San Luis",,1561,1580,,,0,0
1581,"Pasajes de Las Heras a San Luis",,1561,1581,,,0,0
1583,"Ofertas de pasajes de micro a Merlo San Luis","Merlo, San Luis",0,1583,"Ofertas de pasajes de micro a","Merlo, San Luis",,
1588,"Pasajes de Merlo, San Luis a San Luis",,1583,1588,"Pasajes de Merlo, San Luis a San Luis",,1,1
1589,"Pasajes de Merlo, San Luis a Buenos Aires",,1583,1589,"Pasajes de Merlo, San Luis a Buenos Aires",,1,1
1590,"Pasajes de Merlo, San Luis a Córdoba",,1583,1590,"Pasajes de Merlo, San Luis a Córdoba",,1,1
1591,"Pasajes de Merlo, San Luis a San Juan",,1583,1591,"Pasajes de Merlo, San Luis a San Juan",,1,1
1592,"Pasajes de Merlo, San Luis a La Rioja",,1583,1592,"Pasajes de Merlo, San Luis a La Rioja",,1,1
1593,"Pasajes de San Luis a Merlo, San Luis",,1583,1593,"Pasajes de San Luis a Merlo, San Luis",,0,1
1594,"Pasajes de Buenos Aires a Merlo, San Luis",,1583,1594,"Pasajes de Buenos Aires a Merlo, San Luis",,0,1
1595,"Pasajes de Córdoba a Merlo, San Luis",,1583,1595,"Pasajes de Córdoba a Merlo, San Luis",,0,1
1596,"Pasajes de San Juan a Merlo, San Luis",,1583,1596,"Pasajes de San Juan a Merlo, San Luis",,0,1
1597,"Pasajes de La Rioja a Merlo, San Luis",,1583,1597,"Pasajes de La Rioja a Merlo, San Luis",,0,1
1598,"Pasajes de Merlo, San Luis a Villa Mercedes",,1583,1598,"Pasajes de Merlo, San Luis a Villa Mercedes",,1,0
1599,"Pasajes de Merlo, San Luis a VIlla General Belgrano",,1583,1599,"Pasajes de Merlo, San Luis a VIlla General Belgrano",,1,0
1600,"Pasajes de Merlo, San Luis a Rosario",,1583,1600,"Pasajes de Merlo, San Luis a Rosario",,1,0
1601,"Pasajes de Merlo, San Luis a La Plata",,1583,1601,"Pasajes de Merlo, San Luis a La Plata",,1,0
1602,"Pasajes de Merlo, San Luis a Santa Fe",,1583,1602,"Pasajes de Merlo, San Luis a Santa Fe",,1,0
1603,"Pasajes de Villa Mercedes a Merlo, San Luis",,1583,1603,"Pasajes de Villa Mercedes a Merlo, San Luis",,0,0
1604,"Pasajes de VIlla General Belgrano a Merlo, San Luis",,1583,1604,"Pasajes de VIlla General Belgrano a Merlo, San Luis",,0,0
1605,"Pasajes de Rosario a Merlo, San Luis",,1583,1605,"Pasajes de Rosario a Merlo, San Luis",,0,0
1606,"Pasajes de La Plata a Merlo, San Luis",,1583,1606,"Pasajes de La Plata a Merlo, San Luis",,0,0
1607,"Pasajes de Santa Fe a Merlo, San Luis",,1583,1607,"Pasajes de Santa Fe a Merlo, San Luis",,0,0
1608,"Ofertas de pasajes de micro a san juan","San Juan",0,1608,"Ofertas de pasajes de micro","San Juan",1,
1609,"Pasajes de San Juan a Mendoza",,1608,1609,"Pasajes de San Juan a Mendoza",,1,1
1610,"Pasajes de San Juan a Buenos Aires",,1608,1610,"Pasajes de San Juan a Buenos Aires",,1,1
1611,"Pasajes de San Juan a Córdoba",,1608,1611,"Pasajes de San Juan a Córdoba",,1,1
1612,"Pasajes de San Juan a San Luis",,1608,1612,"Pasajes de San Juan a San Luis",,1,1
1613,"Pasajes de San Juan a Mar del Plata",,1608,1613,"Pasajes de San Juan a Mar del Plata",,1,1
1614,"Pasajes de Mendoza a San Juan",,1608,1614,"Pasajes de Mendoza a San Juan",,0,1
1615,"Pasajes de Buenos Aires a San Juan",,1608,1615,"Pasajes de Buenos Aires a San Juan",,0,1
1616,"Pasajes de Córdoba a San Juan",,1608,1616,"Pasajes de Córdoba a San Juan",,0,1
1617,"Pasajes de San Luis a San Juan",,1608,1617,"Pasajes de San Luis a San Juan",,0,1
1618,"Pasajes de Mar del Plata a San Juan",,1608,1618,"Pasajes de Mar del Plata a San Juan",,0,1
1619,"Pasajes de San Juan a Villa Aberastain",,1608,1619,"Pasajes de San Juan a Villa Aberastain",,1,0
1620,"Pasajes de San Juan a Villa Krause",,1608,1620,"Pasajes de San Juan a Villa Krause",,1,0
1621,"Pasajes de San Juan a Rivadavia",,1608,1621,"Pasajes de San Juan a Rivadavia",,1,0
1622,"Pasajes de San Juan a Santa Lucía",,1608,1622,"Pasajes de San Juan a Santa Lucía",,1,0
1623,"Pasajes de San Juan a Chimbas",,1608,1623,"Pasajes de San Juan a Chimbas",,1,0
1624,"Pasajes de Villa Aberastain a San Juan",,1608,1624,"Pasajes de Villa Aberastain a San Juan",,0,0
1625,"Pasajes de Villa Krause a San Juan",,1608,1625,"Pasajes de Villa Krause a San Juan",,0,0
1626,"Pasajes de Rivadavia a San Juan",,1608,1626,"Pasajes de Rivadavia a San Juan",,0,0
1627,"Pasajes de Santa Lucía a San Juan",,1608,1627,"Pasajes de Santa Lucía a San Juan",,0,0
1628,"Pasajes de Chimbas a San Juan",,1608,1628,"Pasajes de Chimbas a San Juan",,0,0
1629,"Ofertas de pasajes de micro a mendoza",Mendoza,0,1629,"Encontrá pasajes de micro a",Mendoza,1,
1630,"Pasajes de Córdoba a Buenos Aires",,1629,1630,,,1,1
1631,"Pasajes de Córdoba a Córdoba",,1629,1631,,,1,1
1632,"Pasajes de Córdoba a San Rafael",,1629,1632,,,1,1
1633,"Pasajes de Córdoba a Rosario",,1629,1633,,,1,1
1634,"Pasajes de Córdoba a San Juan",,1629,1634,,,1,1
1635,"Pasajes de Buenos Aires a Mendoza",,1629,1635,,,0,1
1636,"Pasajes de Córdoba a Mendoza",,1629,1636,,,0,1
1637,"Pasajes de San Rafael a Mendoza",,1629,1637,,,0,1
1638,"Pasajes de Rosario a Mendoza",,1629,1638,,,0,1
1639,"Pasajes de San Juan a Mendoza",,1629,1639,,,0,1
1640,"Pasajes de Córdoba a Las Heras",,1629,1640,,,1,0
1641,"Pasajes de Córdoba a Godoy Cruz",,1629,1641,,,1,0
1642,"Pasajes de Córdoba a Maipú",,1629,1642,,,1,0
1643,"Pasajes de Córdoba a San Luis",,1629,1643,,,1,0
1644,"Pasajes de Córdoba a San Martín, Mendoza",,1629,1644,,,1,0
1645,"Pasajes de Las Heras a Mendoza",,1629,1645,,,0,0
1646,"Pasajes de Godoy Cruz a Mendoza",,1629,1646,,,0,0
1647,"Pasajes de Maipú a Mendoza",,1629,1647,,,0,0
1648,"Pasajes de San Luis a Mendoza",,1629,1648,,,0,0
1649,"Pasajes de San Martín, Mendoza a Mendoza",,1629,1649,,,0,0
1651,"Ofertas de pasajes de micro a la rioja","La Rioja",0,1651,"Encontrá pasajes de micro a","La Rioja",1,
1652,"Pasajes de La Rioja a Córdoba",,1651,1652,,,1,1
1653,"Pasajes de La Rioja a Buenos Aires",,1651,1653,,,1,1
1654,"Pasajes de La Rioja a San Luis",,1651,1654,,,1,1
1655,"Pasajes de La Rioja a Mendoza",,1651,1655,,,1,1
1656,"Pasajes de La Rioja a San Juan",,1651,1656,,,1,1
1657,"Pasajes de Córdoba a La Rioja",,1651,1657,,,0,1
1658,"Pasajes de Buenos Aires a La Rioja",,1651,1658,,,0,1
1659,"Pasajes de San Luis a La Rioja",,1651,1659,,,0,1
1660,"Pasajes de Mendoza a La Rioja",,1651,1660,,,0,1
1661,"Pasajes de San Juan a La Rioja",,1651,1661,,,0,1
1662,"Pasajes de La Rioja a Chilecito",,1651,1662,,,1,0
1663,"Pasajes de La Rioja a Salta",,1651,1663,,,1,0
1664,"Pasajes de La Rioja a San Fernando, Catamarca",,1651,1664,,,1,0
1665,"Pasajes de La Rioja a Chaco",,1651,1665,,,1,0
1666,"Pasajes de La Rioja a Santiago del Estero",,1651,1666,,,1,0
1667,"Pasajes de Chilecito a La Rioja",,1651,1667,,,0,0
1668,"Pasajes de Salta a La Rioja",,1651,1668,,,0,0
1669,"Pasajes de San Fernando, Catamarca a La Rioja",,1651,1669,,,0,0
1670,"Pasajes de Chaco a La Rioja",,1651,1670,,,0,0
1671,"Pasajes de Santiago del Estero a La Rioja",,1651,1671,,,0,0
1672,"Ofertas de pasajes de micro a mar del plata","Mar del Plata",0,1672,"Encontrá pasajes de micro a","Mar del Plata",1,
1673,"Pasajes de Mar del Plata a Buenos Aires",,1672,1673,,,1,1
1674,"Pasajes de Mar del Plata a Mendoza",,1672,1674,,,1,1
1675,"Pasajes de Mar del Plata a Pinamar",,1672,1675,,,1,1
1676,"Pasajes de Mar del Plata a San Juan",,1672,1676,,,1,1
1677,"Pasajes de Mar del Plata a Villa Gesell",,1672,1677,,,1,1
1678,"Pasajes de Buenos Aires a Mar del Plata",,1672,1678,,,0,1
1679,"Pasajes de Mendoza a Mar del Plata",,1672,1679,,,0,1
1680,"Pasajes de Pinamar a Mar del Plata",,1672,1680,,,0,1
1681,"Pasajes de San Juan a Mar del Plata",,1672,1681,,,0,1
1682,"Pasajes de Villa Gesell a Mar del Plata",,1672,1682,,,0,1
1683,"Pasajes de Mar del Plata a Miramar",,1672,1683,,,1,0
1684,"Pasajes de Mar del Plata a Alejandro Korn",,1672,1684,,,1,0
1685,"Pasajes de Mar del Plata a Necochea",,1672,1685,,,1,0
1686,"Pasajes de Mar del Plata a Las Heras",,1672,1686,,,1,0
1687,"Pasajes de Mar del Plata a Rosario",,1672,1687,,,1,0
1688,"Pasajes de Miramar a Mar del Plata",,1672,1688,,,0,0
1689,"Pasajes de Alejandro Korn a Mar del Plata",,1672,1689,,,0,0
1690,"Pasajes de Necochea a Mar del Plata",,1672,1690,,,0,0
1691,"Pasajes de Las Heras a Mar del Plata",,1672,1691,,,0,0
1692,"Pasajes de Rosario a Mar del Plata",,1672,1692,,,0,0
1693,"Ofertas de pasajes de micro a Viedma",Viedma,0,1693,"Encontrá pasajes de micro a",Viedma,1,
1694,"Pasajes de Viedma a Bahía Blanca",,1693,1694,,,1,1
1695,"Pasajes de Viedma a Bariloche",,1693,1695,,,1,1
1696,"Pasajes de Viedma a Córdoba",,1693,1696,,,1,1
1697,"Pasajes de Viedma a Mar del Plata",,1693,1697,,,1,1
1698,"Pasajes de Viedma a Buenos Aires",,1693,1698,,,1,1
1699,"Pasajes de Bahía Blanca a Viedma",,1693,1699,,,0,1
1700,"Pasajes de Bariloche a Viedma",,1693,1700,,,0,1
1701,"Pasajes de Córdoba a Viedma",,1693,1701,,,0,1
1702,"Pasajes de Mar del Plata a Viedma",,1693,1702,,,0,1
1703,"Pasajes de Buenos Aires a Viedma",,1693,1703,,,0,1
1704,"Pasajes de Viedma a Las Grutas",,1693,1704,,,1,0
1705,"Pasajes de Viedma a General Roca",,1693,1705,,,1,0
1706,"Pasajes de Viedma a Cipolletti",,1693,1706,,,1,0
1707,"Pasajes de Viedma a Villa Mascardi",,1693,1707,,,1,0
1708,"Pasajes de Viedma a El Bolson",,1693,1708,,,1,0
1709,"Pasajes de Las Grutas a Viedma",,1693,1709,,,0,0
1710,"Pasajes de General Roca a Viedma",,1693,1710,,,0,0
1711,"Pasajes de Cipolletti a Viedma",,1693,1711,,,0,0
1712,"Pasajes de Villa Mascardi a Viedma",,1693,1712,,,0,0
1713,"Pasajes de El Bolson a Viedma",,1693,1713,,,0,0
1714,"Ofertas de pasajes de micro a retiro",Retiro,0,1714,"Encontrá pasajes de micro a",Retiro,1,
1715,"Pasajes de Retiro a Rosario",,1714,1715,,,1,1
1716,"Pasajes de Retiro a Córdoba",,1714,1716,,,1,1
1717,"Pasajes de Retiro a Tandil",,1714,1717,,,1,1
1718,"Pasajes de Retiro a Mar del Plata",,1714,1718,,,1,1
1719,"Pasajes de Retiro a Pinamar",,1714,1719,,,1,1
1720,"Pasajes de Rosario a Retiro",,1714,1720,,,0,1
1721,"Pasajes de Córdoba a Retiro",,1714,1721,,,0,1
1722,"Pasajes de Tandil a Retiro",,1714,1722,,,0,1
1723,"Pasajes de Mar del Plata a Retiro",,1714,1723,,,0,1
1724,"Pasajes de Pinamar a Retiro",,1714,1724,,,0,1
1725,"Pasajes de Retiro a Paraná",,1714,1725,,,1,0
1726,"Pasajes de Retiro a Corrientes",,1714,1726,,,1,0
1727,"Pasajes de Retiro a Posadas",,1714,1727,,,1,0
1728,"Pasajes de Retiro a Santa Fe",,1714,1728,,,1,0
1729,"Pasajes de Retiro a Chaco",,1714,1729,,,1,0
1730,"Pasajes de Paraná a Retiro",,1714,1730,,,0,0
1731,"Pasajes de Corrientes a Retiro",,1714,1731,,,0,0
1732,"Pasajes de Posadas a Retiro",,1714,1732,,,0,0
1733,"Pasajes de Santa Fe a Retiro",,1714,1733,,,0,0
1734,"Pasajes de Chaco a Retiro",,1714,1734,,,0,0
1735,"Ofertas de pasajes de micro a buenos aires","Buenos Aires",0,1735,"Encontrá pasajes de micro a","Buenos Aires",1,
1736,"Pasajes de Buenos Aires a Córdoba",,1735,1736,,,1,1
1737,"Pasajes de Buenos Aires a Mendoza",,1735,1737,,,1,1
1738,"Pasajes de Buenos Aires a Bariloche",,1735,1738,,,1,1
1739,"Pasajes de Buenos Aires a Rosario",,1735,1739,,,1,1
1740,"Pasajes de Córdoba a Buenos Aires",,1735,1740,,,0,1
1741,"Pasajes de Mendoza a Buenos Aires",,1735,1741,,,0,1
1742,"Pasajes de Bariloche a Buenos Aires",,1735,1742,,,0,1
1743,"Pasajes de Rosario a Buenos Aires",,1735,1743,,,0,1
1744,"Pasajes de Buenos Aires a Posadas",,1735,1744,,,1,0
1745,"Pasajes de Buenos Aires a Santa Fe",,1735,1745,,,1,0
1746,"Pasajes de Buenos Aires a Santiago del Estero",,1735,1746,,,1,0
1747,"Pasajes de Buenos Aires a Formosa",,1735,1747,,,1,0
1748,"Pasajes de Buenos Aires a San Luis",,1735,1748,,,1,0
1749,"Pasajes de Posadas a Buenos Aires",,1735,1749,,,0,0
1750,"Pasajes de Santa Fe a Buenos Aires",,1735,1750,,,0,0
1751,"Pasajes de Santiago del Estero a Buenos Aires",,1735,1751,,,0,0
1752,"Pasajes de Formosa a Buenos Aires",,1735,1752,,,0,0
1753,"Pasajes de San Luis a Buenos Aires",,1735,1753,,,0,0
1754,"Ofertas de pasajes de micro a Posadas",Posadas,0,1754,"Encontrá pasajes de micro a",Posadas,1,
1755,"Pasajes de Posadas a Córdoba",,1754,1755,,,1,1
1756,"Pasajes de Posadas a Puerto Iguazú",,1754,1756,,,1,1
1757,"Pasajes de Posadas a Rosario",,1754,1757,,,1,1
1758,"Pasajes de Posadas a Salta",,1754,1758,,,1,1
1759,"Pasajes de Córdoba a Posadas",,1754,1759,,,0,1
1760,"Pasajes de Puerto Iguazú a Posadas",,1754,1760,,,0,1
1761,"Pasajes de Rosario a Posadas",,1754,1761,,,0,1
1762,"Pasajes de Salta a Posadas",,1754,1762,,,0,1
1763,"Pasajes de Posadas a Paraná",,1754,1763,,,1,0
1764,"Pasajes de Posadas a Ituzaingó",,1754,1764,,,1,0
1765,"Pasajes de Posadas a Santiago del Estero",,1754,1765,,,1,0
1766,"Pasajes de Posadas a Corrientes",,1754,1766,,,1,0
1767,"Pasajes de Posadas a Oberá",,1754,1767,,,1,0
1768,"Pasajes de Paraná a Posadas",,1754,1768,,,0,0
1769,"Pasajes de Ituzaingó a Posadas",,1754,1769,,,0,0
1770,"Pasajes de Santiago del Estero a Posadas",,1754,1770,,,0,0
1771,"Pasajes de Corrientes a Posadas",,1754,1771,,,0,0
1772,"Pasajes de Oberá a Posadas",,1754,1772,,,0,0
1773,"Ofertas de pasajes de micro a Puerto Iguazú","Puerto Iguazú, Misiones",0,1773,"Encontrá pasajes de micro a","Puerto Iguazú, Misiones",1,
1774,"Pasajes de Puerto Iguazú, Misiones a Buenos Aires",,1773,1774,,,1,1
1775,"Pasajes de Puerto Iguazú, Misiones a Salta",,1773,1775,,,1,1
1776,"Pasajes de Puerto Iguazú, Misiones a Córdoba",,1773,1776,,,1,1
1777,"Pasajes de Puerto Iguazú, Misiones a Rosario",,1773,1777,,,1,1
1778,"Pasajes de Puerto Iguazú, Misiones a Mar del Plata",,1773,1778,,,1,1
1779,"Pasajes de Buenos Aires a Puerto Iguazú, Misiones",,1773,1779,,,0,1
1780,"Pasajes de Salta a Puerto Iguazú, Misiones",,1773,1780,,,0,1
1781,"Pasajes de Córdoba a Puerto Iguazú, Misiones",,1773,1781,,,0,1
1782,"Pasajes de Rosario a Puerto Iguazú, Misiones",,1773,1782,,,0,1
1783,"Pasajes de Mar del Plata a Puerto Iguazú, Misiones",,1773,1783,,,0,1
1784,"Pasajes de Puerto Iguazú, Misiones a Oberá",,1773,1784,,,1,0
1785,"Pasajes de Puerto Iguazú, Misiones a Escobar",,1773,1785,,,1,0
1786,"Pasajes de Puerto Iguazú, Misiones a Santa Fe",,1773,1786,,,1,0
1787,"Pasajes de Puerto Iguazú, Misiones a Concordia",,1773,1787,,,1,0
1788,"Pasajes de Oberá a Puerto Iguazú, Misiones",,1773,1788,,,0,0
1789,"Pasajes de Escobar a Puerto Iguazú, Misiones",,1773,1789,,,0,0
1790,"Pasajes de Santa Fe a Puerto Iguazú, Misiones",,1773,1790,,,0,0
1791,"Pasajes de Concordia a Puerto Iguazú, Misiones",,1773,1791,,,0,0
1792,"Ofertas de pasajes a la costa atlántica","Costa Atlántica",0,1792,"Encontrá pasajes de micro a","Costa Atlántica",1,
1793,"Pasajes de la Costa Atlántica a Buenos Aires",,1792,1793,,,1,1
1794,"Pasajes de la Costa Atlántica a Córdoba",,1792,1794,,,1,1
1795,"Pasajes de la Costa Atlántica a Rosario",,1792,1795,,,1,1
1796,"Pasajes de la Costa Atlántica a Bahía Blanca",,1792,1796,,,1,1
1797,"Pasajes de la Costa Atlántica a San Juan",,1792,1797,,,1,1
1798,"Pasajes de Buenos Aires a la Costa Atlántica",,1792,1798,,,0,1
1799,"Pasajes de Córdoba a la Costa Atlántica",,1792,1799,,,0,1
1800,"Pasajes de Rosario a la Costa Atlántica",,1792,1800,,,0,1
1801,"Pasajes de Bahía Blanca a la Costa Atlántica",,1792,1801,,,0,1
1802,"Pasajes de San Juan a la Costa Atlántica",,1792,1802,,,0,1
1803,"Pasajes de la Costa Atlántica a Viedma",,1792,1803,,,1,0
1804,"Pasajes de la Costa Atlántica a Monte Grande",,1792,1804,,,1,0
1805,"Pasajes de la Costa Atlántica a William C. Morris",,1792,1805,,,1,0
1806,"Pasajes de la Costa Atlántica a Mendoza",,1792,1806,,,1,0
1807,"Pasajes de la Costa Atlántica a Santa Fe",,1792,1807,,,1,0
1808,"Pasajes de Viedma a la Costa Atlántica",,1792,1808,,,0,0
1809,"Pasajes de Monte Grande a la Costa Atlántica",,1792,1809,,,0,0
1810,"Pasajes de William C. Morris a la Costa Atlántica",,1792,1810,,,0,0
1811,"Pasajes de Mendoza a la Costa Atlántica",,1792,1811,,,0,0
1812,"Pasajes de Santa Fe a la Costa Atlántica",,1792,1812,,,0,0
1813,"Ofertas de pasajes a El bolsón","El Bolsón",0,1813,"Encontrá pasajes de micro a","El Bolsón",1,
1814,"Pasajes de El Bolsón a Bariloche",,1813,1814,,,1,1
1815,"Pasajes de El Bolsón a Buenos Aires",,1813,1815,,,1,1
1816,"Pasajes de El Bolsón a Córdoba",,1813,1816,,,1,1
1817,"Pasajes de El Bolsón a Mendoza",,1813,1817,,,1,1
1818,"Pasajes de El Bolsón a San Juan",,1813,1818,,,1,1
1819,"Pasajes de Bariloche a El Bolsón",,1813,1819,,,0,1
1820,"Pasajes de Buenos Aires a El Bolsón",,1813,1820,,,0,1
1821,"Pasajes de Córdoba a El Bolsón",,1813,1821,,,0,1
1822,"Pasajes de Mendoza a El Bolsón",,1813,1822,,,0,1
1823,"Pasajes de San Juan a El Bolsón",,1813,1823,,,0,1
1824,"Pasajes de El Bolsón a General Roca",,1813,1824,,,1,0
1825,"Pasajes de El Bolsón a Neuquén",,1813,1825,,,1,0
1826,"Pasajes de El Bolsón a Cipolletti",,1813,1826,,,1,0
1827,"Pasajes de El Bolsón a Villa Mascardi",,1813,1827,,,1,0
1828,"Pasajes de El Bolsón a Lago Gutierrez",,1813,1828,,,1,0
1829,"Pasajes de General Roca a El Bolsón",,1813,1829,,,0,0
1830,"Pasajes de Neuquén a El Bolsón",,1813,1830,,,0,0
1831,"Pasajes de Cipolletti a El Bolsón",,1813,1831,,,0,0
1832,"Pasajes de Villa Mascardi a El Bolsón",,1813,1832,,,0,0
1833,"Pasajes de Lago Gutierrez a El Bolsón",,1813,1833,,,0,0
1834,"Ofertas de pasajes a Pinamar",Pinamar,0,1834,"Encontrá pasajes de micro a",Pinamar,1,
1835,"Pasajes de Pinamar a Buenos Aires",,1834,1835,,,1,1
1836,"Pasajes de Pinamar a Villa Gesell",,1834,1836,,,1,1
1837,"Pasajes de Pinamar a Córdoba",,1834,1837,,,1,1
1838,"Pasajes de Pinamar a Bahía Blanca",,1834,1838,,,1,1
1839,"Pasajes de Buenos Aires a Pinamar",,1834,1839,,,0,1
1840,"Pasajes de Villa Gesell a Pinamar",,1834,1840,,,0,1
1841,"Pasajes de Córdoba a Pinamar",,1834,1841,,,0,1
1842,"Pasajes de Bahía Blanca a Pinamar",,1834,1842,,,0,1
1843,"Pasajes de Pinamar a Campana",,1834,1843,,,1,0
1844,"Pasajes de Pinamar a La Plata",,1834,1844,,,1,0
1845,"Pasajes de Pinamar a Olavarria",,1834,1845,,,1,0
1846,"Pasajes de Pinamar a Azul",,1834,1846,,,1,0
1847,"Pasajes de Pinamar a Ezeiza",,1834,1847,,,1,0
1848,"Pasajes de Campana a Pinamar",,1834,1848,,,0,0
1849,"Pasajes de La Plata a Pinamar",,1834,1849,,,0,0
1850,"Pasajes de Olavarria a Pinamar",,1834,1850,,,0,0
1851,"Pasajes de Azul a Pinamar",,1834,1851,,,0,0
1852,"Pasajes de Ezeiza a Pinamar",,1834,1852,,,0,0
1853,"Ofertas de pasajes a Villa Gesell","Villa Gesell",0,1853,"Encontrá pasajes de micro a","Villa Gesell",1,
1854,"Pasajes de Villa Gesell a Buenos Aires",,1853,1854,,,1,1
1855,"Pasajes de Villa Gesell a Córdoba",,1853,1855,,,1,1
1856,"Pasajes de Villa Gesell a Bahía Blanca",,1853,1856,,,1,1
1857,"Pasajes de Buenos Aires a Villa Gesell",,1853,1857,,,0,1
1858,"Pasajes de Córdoba a Villa Gesell",,1853,1858,,,0,1
1859,"Pasajes de Bahía Blanca a Villa Gesell",,1853,1859,,,0,1
1860,"Pasajes de Villa Gesell a Campana",,1853,1860,,,1,0
1861,"Pasajes de Villa Gesell a La Plata",,1853,1861,,,1,0
1862,"Pasajes de Villa Gesell a Olavarria",,1853,1862,,,1,0
1863,"Pasajes de Villa Gesell a Azul",,1853,1863,,,1,0
1864,"Pasajes de Villa Gesell a Ezeiza",,1853,1864,,,1,0
1865,"Pasajes de Campana a Villa Gesell",,1853,1865,,,0,0
1866,"Pasajes de La Plata a Villa Gesell",,1853,1866,,,0,0
1867,"Pasajes de Olavarria a Villa Gesell",,1853,1867,,,0,0
1868,"Pasajes de Azul a Villa Gesell",,1853,1868,,,0,0
1869,"Pasajes de Ezeiza a Villa Gesell",,1853,1869,,,0,0
1870,"Ofertas de pasajes a Cariló",Cariló,0,1870,"Encontrá pasajes de micro a",Cariló,1,
1871,"Pasajes de Cariló a Buenos Aires",,1870,1871,,,1,1
1872,"Pasajes de Cariló a Mar del Plata",,1870,1872,,,1,1
1873,"Pasajes de Cariló a Mendoza",,1870,1873,,,1,1
1874,"Pasajes de Cariló a Córdoba",,1870,1874,,,1,1
1875,"Pasajes de Cariló a Bahía Blanca",,1870,1875,,,1,1
1876,"Pasajes de Buenos Aires a Cariló",,1870,1876,,,0,1
1877,"Pasajes de Mar del Plata a Cariló",,1870,1877,,,0,1
1878,"Pasajes de Mendoza a Cariló",,1870,1878,,,0,1
1879,"Pasajes de Córdoba a Cariló",,1870,1879,,,0,1
1880,"Pasajes de Bahía Blanca a Cariló",,1870,1880,,,0,1
1881,"Pasajes de Cariló a Campana",,1870,1881,,,1,0
1882,"Pasajes de Cariló a La Plata",,1870,1882,,,1,0
1883,"Pasajes de Cariló a Olavarria",,1870,1883,,,1,0
1884,"Pasajes de Cariló a Azul",,1870,1884,,,1,0
1885,"Pasajes de Cariló a Ezeiza",,1870,1885,,,1,0
1886,"Pasajes de Campana a Cariló",,1870,1886,,,0,0
1887,"Pasajes de La Plata a Cariló",,1870,1887,,,0,0
1888,"Pasajes de Olavarria a Cariló",,1870,1888,,,0,0
1889,"Pasajes de Azul a Cariló",,1870,1889,,,0,0
1890,"Pasajes de Ezeiza a Cariló",,1870,1890,,,0,0
1891,"Ofertas de pasajes a Necochea",Necochea,0,1891,"Encontrá pasajes de micro a",Necochea,1,
1892,"Pasajes de Necochea a Buenos Aires",,1891,1892,,,1,1
1893,"Pasajes de Necochea a Mendoza",,1891,1893,,,1,1
1894,"Pasajes de Necochea a Córdoba",,1891,1894,,,1,1
1895,"Pasajes de Necochea a Bahía Blanca",,1891,1895,,,1,1
1896,"Pasajes de Buenos Aires a Necochea",,1891,1896,,,0,1
1897,"Pasajes de Mendoza a Necochea",,1891,1897,,,0,1
1898,"Pasajes de Córdoba a Necochea",,1891,1898,,,0,1
1899,"Pasajes de Bahía Blanca a Necochea",,1891,1899,,,0,1
1900,"Pasajes de Necochea a Campana",,1891,1900,,,1,0
1901,"Pasajes de Necochea a La Plata",,1891,1901,,,1,0
1902,"Pasajes de Necochea a Olavarria",,1891,1902,,,1,0
1903,"Pasajes de Necochea a Azul",,1891,1903,,,1,0
1904,"Pasajes de Necochea a Ezeiza",,1891,1904,,,1,0
1905,"Pasajes de Campana a Necochea",,1891,1905,,,0,0
1906,"Pasajes de La Plata a Necochea",,1891,1906,,,0,0
1907,"Pasajes de Olavarria a Necochea",,1891,1907,,,0,0
1908,"Pasajes de Azul a Necochea",,1891,1908,,,0,0
1909,"Pasajes de Ezeiza a Necochea",,1891,1909,,,0,0
1910,"Ofertas de pasajes a Bahía Blanca","Bahía Blanca",0,1910,"Encontrá pasajes de micro a","Bahía Blanca",1,
1911,"Pasajes de Bahía Blanca a Buenos Aires",,1910,1911,,,1,1
1912,"Pasajes de Bahía Blanca a Córdoba",,1910,1912,,,1,1
1913,"Pasajes de Bahía Blanca a Bariloche",,1910,1913,,,1,1
1914,"Pasajes de Bahía Blanca a Mendoza",,1910,1914,,,1,1
1915,"Pasajes de Bahía Blanca a Mar del Plata",,1910,1915,,,1,1
1916,"Pasajes de Buenos Aires a Bahía Blanca",,1910,1916,,,0,1
1917,"Pasajes de Córdoba a Bahía Blanca",,1910,1917,,,0,1
1918,"Pasajes de Bariloche a Bahía Blanca",,1910,1918,,,0,1
1919,"Pasajes de Mendoza a Bahía Blanca",,1910,1919,,,0,1
1920,"Pasajes de Mar del Plata a Bahía Blanca",,1910,1920,,,0,1
1921,"Pasajes de Bahía Blanca a Santa Rosa",,1910,1921,,,1,0
1922,"Pasajes de Bahía Blanca a Neuquén",,1910,1922,,,1,0
1923,"Pasajes de Bahía Blanca a Chubut",,1910,1923,,,1,0
1924,"Pasajes de Bahía Blanca a Comodoro Rivadavia",,1910,1924,,,1,0
1925,"Pasajes de Santa Rosa a Bahía Blanca",,1910,1925,,,0,0
1926,"Pasajes de Neuquén a Bahía Blanca",,1910,1926,,,0,0
1927,"Pasajes de Chubut a Bahía Blanca",,1910,1927,,,0,0
1928,"Pasajes de Comodoro Rivadavia a Bahía Blanca",,1910,1928,,,0,0
1929,"Ofertas de pasajes a Rosario",Rosario,0,1929,"Encontrá pasajes de micro a",Rosario,1,
1930,"Pasajes de Rosario a Córdoba",,1929,1930,,,1,1
1931,"Pasajes de Rosario a Mendoza",,1929,1931,,,1,1
1932,"Pasajes de Rosario a Pinamar",,1929,1932,,,1,1
1933,"Pasajes de Córdoba a Rosario",,1929,1933,,,0,1
1934,"Pasajes de Mendoza a Rosario",,1929,1934,,,0,1
1935,"Pasajes de Pinamar a Rosario",,1929,1935,,,0,1
1936,"Pasajes de Rosario a Santa Fe",,1929,1936,,,1,0
1937,"Pasajes de Rosario a Paraná",,1929,1937,,,1,0
1938,"Pasajes de Rosario a Carlos Paz",,1929,1938,,,1,0
1939,"Pasajes de Rosario a Bariloche",,1929,1939,,,1,0
1940,"Pasajes de Rosario a Salta",,1929,1940,,,1,0
1941,"Pasajes de Santa Fe a Rosario",,1929,1941,,,0,0
1942,"Pasajes de Paraná a Rosario",,1929,1942,,,0,0
1943,"Pasajes de Carlos Paz a Rosario",,1929,1943,,,0,0
1944,"Pasajes de Bariloche a Rosario",,1929,1944,,,0,0
1945,"Pasajes de Salta a Rosario",,1929,1945,,,0,0
1946,"Ofertas de pasajes a Salta",Salta,0,1946,"Encontrá pasajes de micro a",Salta,1,
1947,"Pasajes de Salta a Buenos Aires",,1946,1947,,,1,1
1948,"Pasajes de Salta a Córdoba",,1946,1948,,,1,1
1949,"Pasajes de Salta a Mendoza",,1946,1949,,,1,1
1950,"Pasajes de Salta a San Luis",,1946,1950,,,1,1
1951,"Pasajes de Buenos Aires a Salta",,1946,1951,,,0,1
1952,"Pasajes de Córdoba a Salta",,1946,1952,,,0,1
1953,"Pasajes de Mendoza a Salta",,1946,1953,,,0,1
1954,"Pasajes de San Luis a Salta",,1946,1954,,,0,1
1955,"Pasajes de Salta a Jujuy",,1946,1955,,,1,0
1956,"Pasajes de Salta a Tucumán",,1946,1956,,,1,0
1957,"Pasajes de Salta a Catamarca",,1946,1957,,,1,0
1958,"Pasajes de Salta a Chaco",,1946,1958,,,1,0
1959,"Pasajes de Salta a Formosa",,1946,1959,,,1,0
1960,"Pasajes de Jujuy a Salta",,1946,1960,,,0,0
1961,"Pasajes de Tucumán a Salta",,1946,1961,,,0,0
1962,"Pasajes de Catamarca a Salta",,1946,1962,,,0,0
1963,"Pasajes de Chaco a Salta",,1946,1963,,,0,0
1964,"Pasajes de Formosa a Salta",,1946,1964,,,0,0
1965,"Ofertas de pasajes a San Rafael","San Rafael",0,1965,"Encontrá pasajes de micro a","San Rafael",1,
1966,"Pasajes de San Rafael a Mendoza",,1965,1966,,,1,1
1967,"Pasajes de San Rafael a Buenos Aires",,1965,1967,,,1,1
1968,"Pasajes de San Rafael a Rosario",,1965,1968,,,1,1
1969,"Pasajes de San Rafael a Córdoba",,1965,1969,,,1,1
1970,"Pasajes de San Rafael a San Luis",,1965,1970,,,1,1
1971,"Pasajes de Mendoza a San Rafael",,1965,1971,,,0,1
1972,"Pasajes de Buenos Aires a San Rafael",,1965,1972,,,0,1
1973,"Pasajes de Rosario a San Rafael",,1965,1973,,,0,1
1974,"Pasajes de Córdoba a San Rafael",,1965,1974,,,0,1
1975,"Pasajes de San Luis a San Rafael",,1965,1975,,,0,1
1976,"Pasajes de San Rafael a Neuquén",,1965,1976,,,1,0
1977,"Pasajes de San Rafael a Santa Rosa",,1965,1977,,,1,0
1978,"Pasajes de San Rafael a Merlo, San Luis",,1965,1978,,,1,0
1979,"Pasajes de San Rafael a Malargüe",,1965,1979,,,1,0
1980,"Pasajes de San Rafael a General Alvear",,1965,1980,,,1,0
1981,"Pasajes de Neuquén a San Rafael",,1965,1981,,,0,0
1982,"Pasajes de Santa Rosa a San Rafael",,1965,1982,,,0,0
1983,"Pasajes de Merlo, San Luis a San Rafael",,1965,1983,,,0,0
1984,"Pasajes de Malargüe a San Rafael",,1965,1984,,,0,0
1985,"Pasajes de General Alvear a San Rafael",,1965,1985,,,0,0
1986,"Ofertas de pasajes a Tandil",Tandil,0,1986,"Encontrá pasajes de micro a",Tandil,1,
1987,"Pasajes de Tandil a Buenos Aires",,1986,1987,,,1,1
1988,"Pasajes de Tandil a Bahía Blanca",,1986,1988,,,1,1
1989,"Pasajes de Tandil a Mar del Plata",,1986,1989,,,1,1
1990,"Pasajes de Tandil a Rosario",,1986,1990,,,1,1
1991,"Pasajes de Tandil a Córdoba",,1986,1991,,,1,1
1992,"Pasajes de Buenos Aires a Tandil",,1986,1992,,,0,1
1993,"Pasajes de Bahía Blanca a Tandil",,1986,1993,,,0,1
1994,"Pasajes de Mar del Plata a Tandil",,1986,1994,,,0,1
1995,"Pasajes de Rosario a Tandil",,1986,1995,,,0,1
1996,"Pasajes de Córdoba a Tandil",,1986,1996,,,0,1
1997,"Pasajes de Tandil a Santa Fe",,1986,1997,,,1,0
1998,"Pasajes de Tandil a La Plata",,1986,1998,,,1,0
1999,"Pasajes de Tandil a Villa Gesell",,1986,1999,,,1,0
2000,"Pasajes de Tandil a Pinamar",,1986,2000,,,1,0
2001,"Pasajes de Tandil a Cariló",,1986,2001,,,1,0
2002,"Pasajes de Santa Fe a Tandil",,1986,2002,,,0,0
2003,"Pasajes de La Plata a Tandil",,1986,2003,,,0,0
2004,"Pasajes de Villa Gesell a Tandil",,1986,2004,,,0,0
2005,"Pasajes de Pinamar a Tandil",,1986,2005,,,0,0
2006,"Pasajes de Cariló a Tandil",,1986,2006,,,0,0
2007,"Ofertas de pasajes a Las grutas","Las Grutas",0,2007,"Encontrá pasajes de micro a","Las Grutas",1,
2008,"Pasajes de Las Grutas a Bahía Blanca",,2007,2008,,,1,1
2009,"Pasajes de Las Grutas a Buenos Aires",,2007,2009,,,1,1
2010,"Pasajes de Las Grutas a Bariloche",,2007,2010,,,1,1
2011,"Pasajes de Las Grutas a Córdoba",,2007,2011,,,1,1
2012,"Pasajes de Bahía Blanca a Las Grutas",,2007,2012,,,0,1
2013,"Pasajes de Buenos Aires a Las Grutas",,2007,2013,,,0,1
2014,"Pasajes de Bariloche a Las Grutas",,2007,2014,,,0,1
2015,"Pasajes de Córdoba a Las Grutas",,2007,2015,,,0,1
2016,"Pasajes de Las Grutas a Neuquén",,2007,2016,,,1,0
2017,"Pasajes de Las Grutas a Cipolletti",,2007,2017,,,1,0
2018,"Pasajes de Las Grutas a San Rafael",,2007,2018,,,1,0
2019,"Pasajes de Las Grutas a General Roca",,2007,2019,,,1,0
2020,"Pasajes de Las Grutas a Puerto Madryn",,2007,2020,,,1,0
2021,"Pasajes de Neuquén a Las Grutas",,2007,2021,,,0,0
2022,"Pasajes de Cipolletti a Las Grutas",,2007,2022,,,0,0
2023,"Pasajes de San Rafael a Las Grutas",,2007,2023,,,0,0
2024,"Pasajes de General Roca a Las Grutas",,2007,2024,,,0,0
2025,"Pasajes de Puerto Madryn a Las Grutas",,2007,2025,,,0,0
2026,"Ofertas de pasajes a Santa Teresita","Santa Teresita",0,2026,"Encontrá pasajes de micro a","Santa Teresita",1,
2027,"Pasajes de Santa Teresita a Mar del Plata",,2026,2027,,,1,1
2028,"Pasajes de Santa Teresita a Buenos Aires",,2026,2028,,,1,1
2029,"Pasajes de Santa Teresita a Bahía Blanca",,2026,2029,,,1,1
2030,"Pasajes de Santa Teresita a Córdoba",,2026,2030,,,1,1
2031,"Pasajes de Santa Teresita a Rosario",,2026,2031,,,1,1
2032,"Pasajes de Mar del Plata a Santa Teresita",,2026,2032,,,0,1
2033,"Pasajes de Buenos Aires a Santa Teresita",,2026,2033,,,0,1
2034,"Pasajes de Bahía Blanca a Santa Teresita",,2026,2034,,,0,1
2035,"Pasajes de Córdoba a Santa Teresita",,2026,2035,,,0,1
2036,"Pasajes de Rosario a Santa Teresita",,2026,2036,,,0,1
2037,"Pasajes de Santa Teresita a Campana",,2026,2037,,,1,0
2038,"Pasajes de Santa Teresita a La Plata",,2026,2038,,,1,0
2039,"Pasajes de Santa Teresita a Olavarria",,2026,2039,,,1,0
2040,"Pasajes de Santa Teresita a Azul",,2026,2040,,,1,0
2041,"Pasajes de Santa Teresita a Ezeiza",,2026,2041,,,1,0
2042,"Pasajes de Campana a Santa Teresita",,2026,2042,,,0,0
2043,"Pasajes de La Plata a Santa Teresita",,2026,2043,,,0,0
2044,"Pasajes de Olavarria a Santa Teresita",,2026,2044,,,0,0
2045,"Pasajes de Azul a Santa Teresita",,2026,2045,,,0,0
2046,"Pasajes de Ezeiza a Santa Teresita",,2026,2046,,,0,0
2047,"Ofertas de pasajes a San bernardo","San bernardo",0,2047,"Encontrá pasajes de micro a","San bernardo",1,
2048,"Pasajes de San bernardo a Mar del Plata",,2047,2048,,,1,1
2049,"Pasajes de San bernardo a Buenos Aires",,2047,2049,,,1,1
2050,"Pasajes de San bernardo a Bahía Blanca",,2047,2050,,,1,1
2051,"Pasajes de San bernardo a Córdoba",,2047,2051,,,1,1
2052,"Pasajes de San bernardo a Rosario",,2047,2052,,,1,1
2053,"Pasajes de Mar del Plata a San bernardo",,2047,2053,,,0,1
2054,"Pasajes de Buenos Aires a San bernardo",,2047,2054,,,0,1
2055,"Pasajes de Bahía Blanca a San bernardo",,2047,2055,,,0,1
2056,"Pasajes de Córdoba a San bernardo",,2047,2056,,,0,1
2057,"Pasajes de Rosario a San bernardo",,2047,2057,,,0,1
2058,"Pasajes de San bernardo a Campana",,2047,2058,,,1,0
2059,"Pasajes de San bernardo a La Plata",,2047,2059,,,1,0
2060,"Pasajes de San bernardo a Olavarria",,2047,2060,,,1,0
2061,"Pasajes de San bernardo a Azul",,2047,2061,,,1,0
2062,"Pasajes de San bernardo a Ezeiza",,2047,2062,,,1,0
2063,"Pasajes de Campana a San bernardo",,2047,2063,,,0,0
2064,"Pasajes de La Plata a San bernardo",,2047,2064,,,0,0
2065,"Pasajes de Olavarria a San bernardo",,2047,2065,,,0,0
2066,"Pasajes de Azul a San bernardo",,2047,2066,,,0,0
2067,"Pasajes de Ezeiza a San bernardo",,2047,2067,,,0,0
