                <svg id="Group_693" data-name="Group 693" xmlns="http://www.w3.org/2000/svg" xmlns:xlink="http://www.w3.org/1999/xlink" width="768" height="1359.006" viewBox="0 0 768 1359.006">
                <defs>
                    <clipPath id="clip-path">
                    <rect id="Rectangle_214" data-name="Rectangle 214" width="768" height="1359" fill="#f2fbcc" opacity="0.999"/>
                    </clipPath>
                </defs>
                <rect id="Rectangle_215" data-name="Rectangle 215" width="768" height="1359" fill="#f2fbcc" opacity="0.999"/>
                <g id="Mask_Group_17" data-name="Mask Group 17" clip-path="url(#clip-path)">
                    <g id="Group_692" data-name="Group 692">
                    <path id="Path" d="M134,674.723,170.231,654S283.1,818.4,436.388,804.587c-1.393,23.486,1.394,48.354,1.394,48.354C327.7,855.7,196.707,793.535,134,674.723Z" transform="translate(-153.518 486.074)" fill="#7c51a1" opacity="0.078"/>
                    <path id="Path-2" data-name="Path" d="M-60,634.536l44.6,25.631s138.95-203.34,327.648-186.253c-1.715-29.048,1.715-59.806,1.715-59.806C178.446,410.692,17.195,487.585-60,634.536Z" transform="translate(-147.023 522.855)" fill="#dc272d" opacity="0.078"/>
                    <path id="Path-3" data-name="Path" d="M1138,971.165l46.346,26.634s144.387-211.3,340.468-193.54c-1.783-30.185,1.782-62.146,1.782-62.146C1385.775,738.562,1218.215,818.464,1138,971.165Z" transform="translate(-526.162 238.047)" fill="#c0bc00" opacity="0.078"/>
                    </g>
                </g>
                <g id="Group_674" data-name="Group 674" transform="translate(-109.396)">
                    <g id="Group_488" data-name="Group 488" transform="translate(-97.629 936.855)">
                    <path id="Path-4" data-name="Path" d="M262.024,1215.782c-5.943,5.128-28.059,27.563-27.9,27.745l.024.019a.071.071,0,0,1-.024-.019l-26.136-21.338s-20.517-19.021-40.311-7.261c-3.857,2.291-27.225,13.4-27.225,13.4l-10.513-4.861s-15.967-11.909-39.883,10.251C62.013,1256.7,34.192,1253.067,22.3,1244.4S0,1223.47,0,1223.47v38.016H479.945l-51.1-56.81s-13.025-18.714-27.017-3.844l-40.436,35.137-40.616-23.177S292.77,1189.251,262.024,1215.782Z" transform="translate(420.923 -839.981)" fill="#8fe164"/>
                    <g id="Group_485" data-name="Group 485" transform="translate(287.408 13.67)">
                        <g id="Group_320" data-name="Group 320" transform="translate(325.338 3.491)">
                        <rect id="Rectangle_155" data-name="Rectangle 155" width="260.044" height="100.017" rx="5" transform="translate(0 183.879) rotate(-45)" fill="#fff"/>
                        <path id="Rectangle_156" data-name="Rectangle 156" d="M5,0H255.044a5,5,0,0,1,5,5V18.465a0,0,0,0,1,0,0H0a0,0,0,0,1,0,0V5A5,5,0,0,1,5,0Z" transform="translate(0 183.879) rotate(-45)" fill="#123f43" style="isolation: isolate"/>
                        <line id="Line_138" data-name="Line 138" x2="70.723" y2="70.723" transform="translate(133.829 50.05)" fill="none" stroke="#009576" stroke-miterlimit="10" stroke-width="1" stroke-dasharray="4 4" style="isolation: isolate"/>
                        <rect id="Rectangle_157" data-name="Rectangle 157" width="18.465" height="56.933" transform="translate(134.917 90.308) rotate(-45)" fill="#009576" style="isolation: isolate"/>
                        <line id="Line_139" data-name="Line 139" x1="92.484" y2="92.484" transform="translate(36.993 102.276)" fill="none" stroke="#009576" stroke-miterlimit="10" stroke-width="1" style="isolation: isolate"/>
                        <line id="Line_140" data-name="Line 140" x1="92.484" y2="92.484" transform="translate(48.418 113.7)" fill="none" stroke="#009576" stroke-miterlimit="10" stroke-width="1" style="isolation: isolate"/>
                        <line id="Line_141" data-name="Line 141" x1="92.484" y2="92.484" transform="translate(59.842 125.125)" fill="none" stroke="#009576" stroke-miterlimit="10" stroke-width="1" style="isolation: isolate"/>
                        <line id="Line_142" data-name="Line 142" x1="92.484" y2="92.484" transform="translate(71.267 136.549)" fill="none" stroke="#009576" stroke-miterlimit="10" stroke-width="1" style="isolation: isolate"/>
                        <line id="Line_143" data-name="Line 143" x1="38.081" y2="38.081" transform="translate(163.207 30.465)" fill="none" stroke="#009576" stroke-miterlimit="10" stroke-width="1" style="isolation: isolate"/>
                        <line id="Line_144" data-name="Line 144" x1="38.081" y2="38.081" transform="translate(174.631 41.89)" fill="none" stroke="#009576" stroke-miterlimit="10" stroke-width="1" style="isolation: isolate"/>
                        <line id="Line_145" data-name="Line 145" x1="38.081" y2="38.081" transform="translate(186.056 53.314)" fill="none" stroke="#009576" stroke-miterlimit="10" stroke-width="1" style="isolation: isolate"/>
                        <line id="Line_146" data-name="Line 146" x1="38.081" y2="38.081" transform="translate(197.48 64.739)" fill="none" stroke="#009576" stroke-miterlimit="10" stroke-width="1" style="isolation: isolate"/>
                        </g>
                        <path id="Composite_Path" data-name="Composite Path" d="M280.012,264.011v26.668h5.606v-26.86a20.319,20.319,0,0,1-3.47.294h-.074A20.067,20.067,0,0,1,280.012,264.011Zm-18.219-20.173a20.243,20.243,0,0,0,20.283,20.274h.074a20.274,20.274,0,1,0,0-40.548h-.074a20.28,20.28,0,0,0-20.285,20.273v0Z" transform="translate(22.264 24.21)" fill="#b3e3c8"/>
                        <g id="Group_122" data-name="Group 122" transform="translate(319.752 32.281)">
                        <path id="Path-23" d="M284.99,365.956V94.7l93.9-11.185V365.956Z" transform="translate(-284.99 -83.517)" fill="#99d5c8"/>
                        <path id="Path-24" d="M366.13,195.873l39.238,15.387v97.875H345.1V186.093Z" transform="translate(-252.606 -28.257)" fill="#f2fbcc"/>
                        </g>
                        <path id="Path-25" d="M402.428,146.216s1.385,184.564-1.539,184.564h-99.5V146.216Z" transform="translate(43.594 -17.459)" fill="#e6f699"/>
                        <path id="Path-6" d="M160.521,106.719a27.4,27.4,0,0,0-27.082,31.265H242.382A20.527,20.527,0,0,0,213.023,122.5a27.368,27.368,0,0,0-31-5.335A27.31,27.31,0,0,0,160.521,106.719Z" transform="translate(-47.03 -38.737)" fill="#fcfcfd"/>
                        <path id="Path-7" d="M147.02,226.662H279.092s-2.634-14.646-16.172-12.1c-5.727-5.261-7.09-10.116-17.521-8.068-3.387-7.29-1.829-10.591-16.172-17.481-11.927-5.147-23.467,6.858-22.912,10.757-3.61-4.256-14.895-1.231-16.172,6.717-6.7-1.269-16.629,1.837-20.91,7.467C158.534,212.6,150.174,211.486,147.02,226.662Z" transform="translate(-39.566 4.916)" fill="#fcfcfd"/>
                        <g id="Group_321" data-name="Group 321" transform="translate(177.207 0)">
                        <path id="Path_783" data-name="Path 783" d="M239.852,128.536V250.1a66.177,66.177,0,0,0,0-121.565Z" transform="translate(-166.763 -26.983)" fill="#dad3d7" style="isolation: isolate"/>
                        <path id="Path_784" data-name="Path 784" d="M192.352,198.345V367.132h73.089V212.494a66.185,66.185,0,0,1-73.089-14.149Z" transform="translate(-192.352 10.624)" fill="#dad3d7" style="isolation: isolate"/>
                        <rect id="Rectangle_158" data-name="Rectangle 158" width="58.754" height="18.465" rx="6" transform="translate(96.181 76.178) rotate(-45)" fill="#dbd4d8" style="isolation: isolate"/>
                        <rect id="Rectangle_159" data-name="Rectangle 159" width="89.988" height="173.876" rx="3.289" transform="translate(36.558)" fill="#123f43"/>
                        <rect id="Rectangle_160" data-name="Rectangle 160" width="82.025" height="158.489" rx="3.289" transform="translate(40.54 7.694)" fill="#fff" style="isolation: isolate"/>
                        <path id="Rectangle_161" data-name="Rectangle 161" d="M0,0H21.522A20.793,20.793,0,0,1,42.315,20.793v108.46a0,0,0,0,1,0,0H0a0,0,0,0,1,0,0V0A0,0,0,0,1,0,0Z" transform="translate(12.309 125.406)" fill="#dad3d7" style="isolation: isolate"/>
                        <rect id="Rectangle_162" data-name="Rectangle 162" width="26.158" height="18.465" rx="5.086" transform="translate(109.249 89.246)" fill="#dbd4d8" style="isolation: isolate"/>
                        <rect id="Rectangle_163" data-name="Rectangle 163" width="26.158" height="18.465" rx="5.086" transform="translate(109.249 112.327)" fill="#dbd4d8" style="isolation: isolate"/>
                        <rect id="Rectangle_164" data-name="Rectangle 164" width="18.465" height="18.465" rx="5.086" transform="translate(116.943 135.408)" fill="#dbd4d8" style="isolation: isolate"/>
                        <path id="Path_785" data-name="Path 785" d="M270.852,123.038v10.771a5.386,5.386,0,1,0,0-10.771Z" transform="translate(-150.062 -29.945)" fill="#fff" style="isolation: isolate"/>
                        <path id="Path_786" data-name="Path 786" d="M271.352,138.038v10.771a5.386,5.386,0,1,0,0-10.771Z" transform="translate(-149.793 -21.864)" fill="#fff" style="isolation: isolate"/>
                        <path id="Path_787" data-name="Path 787" d="M275.352,153.038v10.771a5.386,5.386,0,1,0,0-10.771Z" transform="translate(-147.638 -13.784)" fill="#fff" style="isolation: isolate"/>
                        <text id="_5" data-name="+5" transform="translate(47.373 62.819)" fill="#009576" font-size="41" font-family="Montserrat-Bold, Montserrat" font-weight="700"><tspan x="0" y="0">+5</tspan></text>
                        <path id="Path_788" data-name="Path 788" d="M233.573,214.309a5.06,5.06,0,0,1-5.061-5.061V148.177l12.3-12.3,2.3-2.3a26.078,26.078,0,0,0,7.123-23.664,6.348,6.348,0,0,0-9.715-3.864c-13.964,9.048-26.363,20.9-35.081,34.554q-2.276,3.564-4.2,7.284a75.663,75.663,0,0,0-8.883,34.881v65.868a66.185,66.185,0,0,0,73.089,14.149V214.309Z" transform="translate(-192.352 -39.664)" fill="#dad3d7" style="isolation: isolate"/>
                        <rect id="Rectangle_165" data-name="Rectangle 165" width="55.394" height="20.003" rx="6.5" transform="translate(54.624 134.638)" fill="#c0e900"/>
                        </g>
                        <path id="Path_789" data-name="Path 789" d="M270.781,155v4.616H233.852V155" transform="translate(7.212 -12.727)" fill="#009576"/>
                        <rect id="Rectangle_166" data-name="Rectangle 166" width="50.778" height="6.155" transform="translate(233.371 111.558)" fill="#b2a9ac" style="isolation: isolate"/>
                        <rect id="Rectangle_167" data-name="Rectangle 167" width="50.778" height="6.155" transform="translate(233.371 100.786)" fill="#b2a9ac" style="isolation: isolate"/>
                        <rect id="Rectangle_168" data-name="Rectangle 168" width="50.778" height="6.155" transform="translate(233.371 90.015)" fill="#b2a9ac" style="isolation: isolate"/>
                        <g id="Group_322" data-name="Group 322" transform="translate(177.207 65.333)">
                        <path id="Path_790" data-name="Path 790" d="M233.573,214.309a5.06,5.06,0,0,1-5.061-5.061V148.177l12.3-12.3,2.3-2.3a26.078,26.078,0,0,0,7.123-23.664,6.348,6.348,0,0,0-9.715-3.864c4.316,10.219-4.624,17.454-4.624,17.454l-8.044-8.044A111.781,111.781,0,0,0,205.439,140.6q-2.276,3.564-4.2,7.284a75.663,75.663,0,0,0-8.883,34.881v65.868a66.185,66.185,0,0,0,73.089,14.149V214.309Z" transform="translate(-192.352 -104.997)" fill="#dad3d7" style="isolation: isolate"/>
                        <path id="Path_791" data-name="Path 791" d="M228.091,105.679a127.759,127.759,0,0,0-12.668,9.409l8.044,8.044S232.407,115.9,228.091,105.679Z" transform="translate(-179.923 -104.63)" fill="#fff" style="isolation: isolate"/>
                        </g>
                        <path id="Path-12" d="M125.914,309.541A48.621,48.621,0,0,0,77.567,364.23h258.38a42.679,42.679,0,0,0-60.88-35.366,74.662,74.662,0,0,0-145.636-19.2Q127.675,309.536,125.914,309.541Z" transform="translate(-77.187 44.25)" fill="#c0e900"/>
                        <g id="Group_323" data-name="Group 323" transform="translate(143.536 305.039)">
                        <path id="Path_792" data-name="Path 792" d="M401.4,277.958l-7.081-14.87s-4.248.234,0,8.5,8.5,17.7,8.5,17.7.234,3.065,4.248,2.123Z" transform="translate(-50.894 -259.537)" fill="#001835" fill-rule="evenodd" style="isolation: isolate"/>
                        <path id="Path_793" data-name="Path 793" d="M407.638,297.214l2.833,19.827-3.541-2.125L404.1,300.754l-3.539-15.577s4.956.708,4.956,1.416S407.638,297.214,407.638,297.214Z" transform="translate(-46.514 -247.637)" fill="#001835" fill-rule="evenodd" style="isolation: isolate"/>
                        <path id="Path_794" data-name="Path 794" d="M183.214,260.791H493.357s15.35-.438,20.534,4.248a7.169,7.169,0,0,0-2.125,4.248L523.8,292.655h2.125l3.541,7.789-4.956-1.416,4.956,24.075s-.971,4.028,4.249,7.081c.417,4.793,0,17.7,0,17.7s-2.677,9.382-7.789,9.913-45.317,0-45.317,0v-10.62s-1.474-11.322-14.162-11.329c-11.974-.651-14.162,9.912-14.162,9.912V357.8h-157.9v-8.5c-.092-4.064-4.333-12.745-15.578-12.745s-14.162,11.33-14.162,11.33h-2.831s-1.445-11.33-14.162-11.33-14.161,11.33-14.161,11.33v10.622H208.7l-30.447-2.833s-7.789-1.954-7.789-14.162v-58.77C172.3,266.887,171.2,260.777,183.214,260.791Z" transform="translate(-170.469 -260.78)" fill="#009576" fill-rule="evenodd"/>
                        <circle id="Ellipse_163" data-name="Ellipse 163" cx="13.1" cy="13.1" r="13.1" transform="translate(64.209 77.242)" fill="#001835" style="isolation: isolate"/>
                        <circle id="Ellipse_164" data-name="Ellipse 164" cx="13.1" cy="13.1" r="13.1" transform="translate(96.073 77.242)" fill="#001835" style="isolation: isolate"/>
                        <circle id="Ellipse_165" data-name="Ellipse 165" cx="13.1" cy="13.1" r="13.1" transform="translate(282.3 77.242)" fill="#001835" style="isolation: isolate"/>
                        <circle id="Ellipse_166" data-name="Ellipse 166" cx="7.789" cy="7.789" r="7.789" transform="translate(69.52 82.553)" fill="#f3f3f3"/>
                        <circle id="Ellipse_167" data-name="Ellipse 167" cx="7.789" cy="7.789" r="7.789" transform="translate(101.384 82.553)" fill="#f3f3f3"/>
                        <circle id="Ellipse_168" data-name="Ellipse 168" cx="7.789" cy="7.789" r="7.789" transform="translate(287.61 82.553)" fill="#f3f3f3"/>
                        <path id="Path_795" data-name="Path 795" d="M426.317,316.695H274.787s-5.424,1.543-9.913-4.248-10.622-13.453-10.622-13.453-5.389-7.789,4.956-7.789H409.323s3.895-1.168,7.789,3.541,11.33,14.869,11.33,14.869S432.28,316.476,426.317,316.695Z" transform="translate(-126.089 -244.459)" fill="#001835" fill-rule="evenodd" style="isolation: isolate"/>
                        <path id="Path_796" data-name="Path 796" d="M487.55,262.182h-306.6s-5.076-.829-4.956,4.956v21.95H455.686s17.2.639,20.534,11.33c10.2,13.313,22.659,29.033,22.659,29.033s1.94,4.956,12.745,4.956h7.081s6.372.836,6.372-5.665a125.438,125.438,0,0,0-1.416-15.578l-4.956-19.825-9.914-22.659S507.885,262.182,487.55,262.182Z" transform="translate(-167.495 -260.047)" fill="#001835" fill-rule="evenodd" style="isolation: isolate"/>
                        <path id="Path_797" data-name="Path 797" d="M349.091,291.372c1.594-.177,5.135.885,5.135,3.364v46.733h-20.18V294.027c0-1.062,1.946-3.008,2.654-2.654Zm-11.682-1.594,12.391.177c2.477,0,6.018,2.3,6.018,5.135v47.086c-.177.355-.531.532-.708.709H333.159c-.354-.177-.531-.533-.708-.709v-47.44A4.841,4.841,0,0,1,337.409,289.778Z" transform="translate(-83.205 -245.158)" fill="#009576" fill-rule="evenodd"/>
                        </g>
                    </g>
                    </g>
                </g>
                </svg>