<svg width="63" height="113" viewBox="0 0 63 113" fill="none" xmlns="http://www.w3.org/2000/svg">
<g id="Group 923">
<g id="Group">
<path id="Vector" d="M52.2717 0.669459L42.5081 33.7121L40.9438 39.0072L36.2559 35.1546L24.0033 25.0898L52.2717 0.669459Z" fill="#E37D7A"/>
<path id="Vector_2" d="M52.2718 0.669378L17.2212 21.4321L1.10344 16.3165L52.2718 0.669378Z" fill="#E37D7A"/>
<path id="Vector_3" d="M52.2722 0.66938L24.0048 25.0897L18.6482 36.1049L17.2216 21.4321L52.2722 0.66938Z" fill="#7A1815"/>
</g>
<path id="Vector_4" d="M64.2738 111.956C64.2195 111.957 64.164 111.949 64.1084 111.933C62.9258 111.598 61.7374 111.211 60.5782 110.782C60.2784 110.672 60.1257 110.34 60.236 110.041C60.3462 109.742 60.6798 109.59 60.9786 109.701C62.1099 110.118 63.2695 110.496 64.4244 110.824C64.7311 110.912 64.9093 111.231 64.8217 111.537C64.7498 111.789 64.522 111.953 64.2728 111.956L64.2738 111.956ZM56.2884 108.897C56.2012 108.898 56.1118 108.88 56.0282 108.838C54.9221 108.298 53.8205 107.708 52.7565 107.086C52.4807 106.925 52.3882 106.572 52.55 106.296C52.7119 106.021 53.0657 105.929 53.3415 106.09C54.3807 106.698 55.4555 107.274 56.5368 107.801C56.8237 107.941 56.9427 108.287 56.8025 108.573C56.7034 108.776 56.5007 108.894 56.2894 108.896L56.2884 108.897ZM48.9628 104.491C48.8428 104.492 48.7203 104.456 48.6158 104.38C47.6182 103.654 46.6375 102.882 45.7007 102.086C45.5991 102 45.5352 101.886 45.5101 101.766C44.974 101.961 44.4231 102.131 43.8617 102.274C43.5528 102.352 43.2377 102.166 43.1581 101.857C43.0785 101.549 43.2666 101.235 43.5754 101.155C44.7392 100.859 45.8502 100.439 46.8767 99.9079C47.1601 99.7612 47.5092 99.8717 47.6562 100.154C47.8032 100.437 47.6925 100.786 47.4091 100.932C47.141 101.071 46.8677 101.203 46.5901 101.327C47.4617 102.063 48.3719 102.775 49.2959 103.448C49.5536 103.635 49.6103 103.997 49.4226 104.254C49.3105 104.407 49.1382 104.489 48.9618 104.491L48.9628 104.491ZM38.8756 102.804C38.8664 102.805 38.8572 102.805 38.8479 102.805C37.6247 102.761 36.3672 102.601 35.1094 102.328C34.7978 102.26 34.5992 101.952 34.6673 101.641C34.7354 101.33 35.0438 101.132 35.3554 101.2C36.5453 101.459 37.734 101.61 38.8885 101.652C39.2076 101.663 39.457 101.93 39.4454 102.249C39.4348 102.558 39.1813 102.802 38.8746 102.805L38.8756 102.804ZM30.5954 100.826C30.5165 100.827 30.4363 100.812 30.3589 100.779C29.2556 100.302 28.1338 99.7358 27.0255 99.0961C26.7487 98.9367 26.6542 98.5837 26.815 98.3074C26.9748 98.0312 27.3286 97.9379 27.6054 98.0973C28.6745 98.715 29.756 99.2609 30.8191 99.7199C31.112 99.8464 31.2463 100.187 31.1195 100.479C31.0257 100.694 30.817 100.824 30.5955 100.827L30.5954 100.826ZM42.5273 98.8701C42.3714 98.8719 42.2148 98.8114 42.0984 98.6879C41.2246 97.7598 40.4312 96.7775 39.741 95.7684C39.5614 95.5055 39.6289 95.1464 39.8924 94.9672C40.156 94.788 40.5158 94.8553 40.6954 95.1183C41.3511 96.0776 42.107 97.0133 42.9403 97.8979C43.1585 98.1296 43.1475 98.4952 42.9152 98.7129C42.8057 98.8155 42.6658 98.8674 42.5263 98.8691L42.5273 98.8701ZM51.019 98.0486C50.8785 98.0502 50.7374 98.0018 50.6254 97.9008C50.388 97.6877 50.3692 97.3225 50.5828 97.0855C50.9391 96.6903 51.2685 96.2707 51.5628 95.8373C51.9106 95.3244 52.2157 94.7681 52.4682 94.1837C52.595 93.8915 52.9349 93.7564 53.2278 93.8828C53.5206 94.0093 53.656 94.3485 53.5292 94.6407C53.2478 95.292 52.9075 95.9123 52.5194 96.484C52.1959 96.9607 51.8332 97.4236 51.4404 97.8572C51.328 97.9814 51.1729 98.0457 51.018 98.0475L51.019 98.0486ZM23.259 96.4576C23.1339 96.4591 23.0083 96.4207 22.9006 96.3391C21.9233 95.5924 20.9648 94.7881 20.0531 93.9475C19.8187 93.7312 19.804 93.366 20.0207 93.1321C20.2374 92.8982 20.6034 92.8835 20.8379 93.0998C21.7237 93.9161 22.6542 94.6972 23.6046 95.4227C23.8582 95.6162 23.9067 95.979 23.7117 96.2311C23.5996 96.3778 23.4303 96.4555 23.259 96.4576ZM38.0301 91.6743C37.7829 91.6773 37.5523 91.5204 37.4724 91.2736C37.1112 90.151 36.9206 89.054 36.9091 88.0153C36.9069 87.8311 36.9098 87.6458 36.9189 87.4655C36.9346 87.147 37.2055 86.9022 37.5247 86.9178C37.8439 86.9334 38.0893 87.2038 38.0736 87.5223C38.0663 87.68 38.0631 87.8418 38.065 88.0024C38.0761 88.9266 38.2469 89.9092 38.5729 90.9216C38.6709 91.2244 38.5035 91.5499 38.199 91.6477C38.1428 91.6658 38.0855 91.6747 38.0291 91.6753L38.0301 91.6743ZM53.9461 90.2334C53.6282 90.2373 53.3666 89.9835 53.3608 89.6663C53.3413 88.4741 53.1307 87.3333 52.7323 86.2767C52.62 85.9781 52.7719 85.6457 53.0701 85.5336C53.3693 85.4215 53.7024 85.5731 53.8147 85.8706C54.2587 87.0516 54.4955 88.3231 54.5166 89.6473C54.5214 89.9655 54.2671 90.2286 53.9482 90.2334L53.9461 90.2334ZM17.0646 90.5801C16.8984 90.582 16.7335 90.5134 16.617 90.3776C15.8169 89.4405 15.048 88.4548 14.3323 87.4481C14.1476 87.1882 14.2089 86.8283 14.4693 86.644C14.7297 86.4597 15.0905 86.5208 15.2752 86.7806C15.9711 87.76 16.7191 88.7183 17.4973 89.6301C17.7044 89.8723 17.6749 90.237 17.4322 90.4436C17.3256 90.535 17.1948 90.5795 17.0646 90.5811L17.0646 90.5801ZM39.2514 83.6064C39.1129 83.608 38.9738 83.5606 38.8619 83.4616C38.6224 83.2506 38.5996 82.8865 38.8111 82.6475C39.6541 81.6937 40.7848 80.9472 42.081 80.4885C42.3823 80.3815 42.7124 80.5392 42.8196 80.8389C42.9268 81.1395 42.7687 81.469 42.4684 81.5759C41.3581 81.969 40.3933 82.6039 39.6798 83.4109C39.5675 83.5381 39.4103 83.6045 39.2534 83.6064L39.2514 83.6064ZM12.2206 83.5512C12.0134 83.5537 11.8121 83.4445 11.7051 83.2503C11.1126 82.1653 10.5616 81.044 10.07 79.9158C9.94241 79.6236 10.0768 79.2842 10.3697 79.1568C10.6625 79.0295 11.0027 79.1636 11.1303 79.4558C11.6081 80.5524 12.1433 81.6432 12.7202 82.6987C12.8733 82.9784 12.7698 83.3286 12.4896 83.4814C12.404 83.5285 12.3109 83.5511 12.2196 83.5522L12.2206 83.5512ZM50.4385 82.7556C50.3154 82.7571 50.1918 82.7196 50.0852 82.6401C49.2085 81.9853 48.1361 81.5161 46.9834 81.2822C46.6708 81.2184 46.4681 80.9138 46.5321 80.6019C46.5961 80.2899 46.9014 80.0877 47.214 80.1515C48.5332 80.4192 49.7655 80.9602 50.7778 81.7167C51.0335 81.9081 51.086 82.2688 50.8942 82.5239C50.7821 82.6737 50.6118 82.7535 50.4374 82.7556L50.4385 82.7556ZM8.9298 75.6787C8.67749 75.6817 8.44474 75.5187 8.36887 75.2658C8.01509 74.0786 7.7133 72.8653 7.47419 71.6603C7.41197 71.3479 7.61554 71.0445 7.92868 70.9824C8.24182 70.9203 8.54583 71.1234 8.60805 71.4359C8.84059 72.6061 9.13271 73.7837 9.47686 74.9372C9.56771 75.2422 9.39411 75.5636 9.08747 75.6543C9.03432 75.6703 8.98108 75.6781 8.92877 75.6787L8.9298 75.6787ZM7.40016 67.2887C7.09658 67.2923 6.83836 67.059 6.81724 66.7522C6.76277 65.9749 6.72967 65.1831 6.72027 64.4002C6.71486 63.9489 6.71654 63.4913 6.72651 63.0398C6.73294 62.7214 6.99866 62.4685 7.31672 62.4749C7.63582 62.4813 7.88927 62.7454 7.88284 63.0638C7.87375 63.503 7.87088 63.9473 7.87615 64.3863C7.88528 65.1467 7.91708 65.916 7.97027 66.6718C7.99255 66.9898 7.75275 67.265 7.43401 67.2882C7.42273 67.2884 7.41145 67.2885 7.40016 67.2887ZM7.70915 58.7639C7.68043 58.7643 7.65066 58.7626 7.62086 58.7578C7.30439 58.7135 7.08444 58.4214 7.12989 58.1056C7.30296 56.8855 7.53338 55.6586 7.81335 54.4566C7.88554 54.1467 8.1971 53.9536 8.50775 54.0256C8.8184 54.0976 9.0119 54.4085 8.93971 54.7184C8.66653 55.8875 8.44289 57.0816 8.27453 58.2669C8.23386 58.5529 7.99015 58.7595 7.71016 58.7629L7.70915 58.7639ZM9.77002 50.4853C9.70233 50.4861 9.63347 50.4747 9.56651 50.4509C9.26569 50.343 9.11093 50.0122 9.21913 49.712C9.6401 48.5493 10.1176 47.3952 10.6376 46.2794C10.7726 45.9902 11.1168 45.8653 11.4056 46C11.6955 46.1347 11.8206 46.4781 11.6856 46.7663C11.1796 47.8502 10.7151 48.9735 10.306 50.1033C10.2216 50.3356 10.0028 50.4815 9.76899 50.4843L9.77002 50.4853ZM13.4989 42.81C13.3922 42.8113 13.2842 42.7829 13.186 42.7227C12.9152 42.554 12.8319 42.1978 13.001 41.9276C13.6582 40.8757 14.3711 39.8477 15.1174 38.8704C15.3113 38.6173 15.6739 38.569 15.9275 38.7614C16.1811 38.9549 16.2306 39.3166 16.0367 39.5697C15.3116 40.5181 14.6209 41.5161 13.9818 42.5371C13.8731 42.7104 13.6886 42.8067 13.4978 42.809L13.4989 42.81Z" fill="white"/>
</g>
</svg>
