<?xml version="1.0" encoding="UTF-8"?>
<svg id="Layer_1" data-name="Layer 1" xmlns="http://www.w3.org/2000/svg" version="1.1" viewBox="0 0 23 23">
  <defs>
    <style>
      .cls-1 {
        fill: none;
      }

      .cls-1, .cls-2 {
        stroke-width: 0px;
      }

      .cls-2 {
        fill: currentColor;
      }
    </style>
  </defs>
  <path class="cls-1" d="M15.95,10.82H2.73c-.38,0-.68.31-.68.69v6.34c0,.38.31.68.68.68h15.87c.38,0,.68-.31.68-.68v-6.34c0-.38-.31-.69-.68-.69h-2.59s0,0,0,0c-.02,0-.03,0-.05,0Z"/>
  <path class="cls-2" d="M16,10.83s0,0,0,0h-.05s.03,0,.05,0Z"/>
  <path class="cls-2" d="M15.44,9.91l-.02-.07c-.04-.14.04-.29.18-.34s.29.04.34.18l.07.22h-.56Z"/>
  <g>
    <path class="cls-2" d="M18.59,10.03H2.73c-.81,0-1.47.66-1.47,1.47v6.34c0,.81.66,1.47,1.47,1.47h15.87c.81,0,1.47-.66,1.47-1.47v-6.34c0-.81-.66-1.47-1.47-1.47ZM19.28,17.84c0,.38-.31.68-.68.68h-3.7v-.04c0-.15-.12-.27-.27-.27s-.27.12-.27.27v.04H2.73c-.38,0-.68-.31-.68-.68v-6.34c0-.38.31-.69.68-.69h11.63v.04c0,.15.12.27.27.27s.27-.12.27-.27v-.04h3.7c.38,0,.68.31.68.69v6.34Z"/>
    <path class="cls-2" d="M14.62,14.83c-.15,0-.27.12-.27.27v.85c0,.15.12.27.27.27s.27-.12.27-.27v-.85c0-.15-.12-.27-.27-.27Z"/>
    <path class="cls-2" d="M14.62,16.52c-.15,0-.27.12-.27.27v.85c0,.15.12.27.27.27s.27-.12.27-.27v-.85c0-.15-.12-.27-.27-.27Z"/>
    <path class="cls-2" d="M14.62,11.44c-.15,0-.27.12-.27.27v.85c0,.15.12.27.27.27s.27-.12.27-.27v-.85c0-.15-.12-.27-.27-.27Z"/>
    <path class="cls-2" d="M14.62,13.13c-.15,0-.27.12-.27.27v.85c0,.15.12.27.27.27s.27-.12.27-.27v-.85c0-.15-.12-.27-.27-.27Z"/>
  </g>
  <g>
    <path class="cls-2" d="M15.18,7.25l-.25-.81c-.04-.14-.19-.22-.34-.18-.14.04-.22.19-.18.34l.25.81c.04.14.2.22.34.18s.22-.19.18-.34Z"/>
    <path class="cls-2" d="M15.09,7.88c-.14.04-.22.19-.18.34l.25.81c.04.14.2.22.34.18s.22-.2.18-.34l-.25-.81c-.04-.14-.19-.22-.34-.18Z"/>
    <path class="cls-2" d="M21.68,10.78l-1.86-6.06c-.24-.78-1.07-1.21-1.84-.97L2.81,8.42c-.57.18-.96.67-1.03,1.24h.81c.06-.22.21-.41.45-.48l11.11-3.42v.04c.06.14.21.22.35.18.14-.04.22-.19.18-.34v-.04s3.53-1.09,3.53-1.09c.36-.11.74.09.86.45l1.86,6.06c.11.36-.09.74-.45.86l-.15.05v.83l.39-.12c.78-.24,1.21-1.07.98-1.84Z"/>
  </g>
</svg>